{
  "aliases": {
    "test": {
      "script-ref": "src/main/java/io/qbilon/jbang/Test.java",
      "description": "A simple test commnd"
    },
    "wrap": {
      "script-ref": "https://gitlab.com/qbilon-io/osgi-auto-wrap/-/blob/main/src/main/java/io/qbilon/autowrap/Wrap.java",
      "description": "Wrapping OSGi dependencies automatically"
    },
    "tree": {
      "script-ref": "https://gitlab.com/qbilon-io/osgi-auto-wrap/-/blob/main/src/main/java/io/qbilon/autowrap/Tree.java",
      "description": "Creating an augmented dependency tree"
    },
    "azure-data": {
      "script-ref": "https://gitlab.com/qbilon-io/azure-data-generator/-/blob/main/src/main/java/io/qbilon/azure/data/generator/Main.java",
      "description": "Generates Azure IT-Landscape Data"
    },
    "license-key": {
      "script-ref": "https://gitlab.com/47583141/-/blob/main/src/main/java/io/qbilon/LicenseKey.java",
      "description": "Generates a valid license key that is required for the first license step for activating the Qbilon tool"
    },
    "license": {
      "script-ref": "https://gitlab.com/47583141/-/blob/main/src/main/java/io/qbilon/License.java",
      "description": "Generates an encrypted license based on a license template"
    },
    "post-license": {
      "script-ref": "https://gitlab.com/47583141/-/blob/main/src/main/java/io/qbilon/PostLicense.java",
      "description": "Generates an encrypted license based on a license template and posts it to the provided qbilon backend"
    },
    "management-init-qbilon": {
      "script-ref": "https://gitlab.com/47583141/-/blob/main/src/main/java/io/qbilon/InitQbilon.java",
      "description": "Generates an encrypted license based on a license template and posts to the dbtools management service"
    }

  }
}
